[gd_scene load_steps=2 format=2]

[ext_resource path="res://scenes/paper-held.tscn" type="PackedScene" id=1]

[node name="BeakAttachment" type="BoneAttachment"]
transform = Transform( 0.997048, -0.0702108, 0.0310758, -0.0754626, -0.821413, 0.565319, -0.0141654, -0.565995, -0.824287, 1.52762e-14, 1.24111, -0.938986 )
bone_name = "beak"

[node name="paper-held" type="Spatial" parent="." instance=ExtResource( 1 )]
transform = Transform( -9.99625, -0.144075, 0.232897, 0.209974, 1.42735, 9.89538, -0.175807, 9.89656, -1.42378, 0.256618, 0.534193, 0.0919318 )
visible = false
