[gd_scene load_steps=3 format=2]

[ext_resource path="res://scenes/MovementStateMachine.tres" type="AnimationNodeStateMachine" id=1]

[sub_resource type="AnimationNodeStateMachinePlayback" id=13]

[node name="MovementTree" type="AnimationTree"]
tree_root = ExtResource( 1 )
anim_player = NodePath("../AnimationPlayer")
active = true
parameters/playback = SubResource( 13 )
parameters/FlyBlend/FlapBlend/blend_amount = 0.66
parameters/FlyBlend/TimeScale/scale = 3.0
parameters/WalkBlend/BlendAmount/blend_amount = 0.43
parameters/WalkBlend/TimeScale/scale = 6.0
