[gd_resource type="ArrayMesh" load_steps=2 format=2]

[ext_resource path="res://models/Material_001.material" type="Material" id=1]

[resource]
resource_name = "Plane"
surfaces/0 = {
"aabb": AABB( -0.0306162, -5.82077e-11, -0.00609022, 0.0594006, 1e-05, 0.0121804 ),
"array_data": PoolByteArray( 160, 255, 135, 60, 0, 0, 128, 174, 131, 195, 162, 187, 0, 127, 0, 0, 248, 0, 130, 127, 158, 50, 93, 55, 12, 165, 159, 187, 0, 0, 0, 0, 0, 0, 0, 128, 0, 127, 0, 0, 194, 0, 146, 127, 31, 50, 89, 54, 196, 37, 17, 188, 0, 0, 0, 0, 130, 144, 199, 187, 0, 127, 0, 0, 187, 0, 150, 127, 158, 50, 89, 54, 19, 233, 142, 60, 0, 0, 0, 0, 0, 0, 0, 128, 0, 127, 0, 0, 2, 0, 130, 127, 52, 50, 105, 55, 12, 165, 159, 187, 0, 0, 0, 0, 0, 0, 0, 128, 0, 127, 0, 0, 194, 0, 146, 127, 31, 50, 89, 54, 160, 255, 135, 60, 0, 0, 128, 174, 131, 195, 162, 187, 0, 127, 0, 0, 248, 0, 130, 127, 158, 50, 93, 55, 12, 165, 159, 187, 0, 0, 0, 0, 0, 0, 0, 128, 0, 127, 0, 0, 253, 0, 130, 127, 31, 50, 89, 54, 63, 36, 172, 188, 0, 0, 0, 0, 168, 195, 136, 187, 0, 127, 0, 0, 160, 0, 174, 127, 113, 50, 233, 53, 195, 23, 43, 188, 0, 0, 0, 0, 130, 144, 199, 187, 0, 127, 0, 0, 171, 0, 163, 127, 157, 50, 89, 54, 12, 165, 159, 187, 0, 0, 0, 0, 0, 0, 0, 128, 0, 127, 0, 0, 253, 0, 130, 127, 31, 50, 89, 54, 71, 213, 130, 188, 0, 0, 0, 0, 0, 0, 0, 128, 0, 127, 0, 0, 248, 0, 130, 127, 13, 50, 233, 53, 63, 36, 172, 188, 0, 0, 0, 0, 168, 195, 136, 187, 0, 127, 0, 0, 160, 0, 174, 127, 113, 50, 233, 53, 60, 157, 197, 60, 0, 0, 0, 0, 80, 58, 94, 58, 0, 127, 0, 0, 5, 0, 130, 127, 40, 50, 177, 55, 19, 233, 142, 60, 0, 0, 0, 0, 0, 0, 0, 128, 0, 127, 0, 0, 5, 0, 130, 127, 52, 50, 105, 55, 60, 157, 197, 60, 0, 0, 0, 0, 0, 0, 0, 128, 0, 127, 0, 0, 5, 0, 130, 127, 58, 50, 177, 55, 60, 157, 197, 60, 0, 0, 0, 0, 80, 58, 94, 58, 0, 127, 0, 0, 5, 0, 130, 127, 40, 50, 177, 55, 160, 255, 135, 60, 0, 0, 128, 174, 131, 195, 162, 59, 0, 127, 0, 0, 5, 0, 130, 127, 200, 49, 98, 55, 19, 233, 142, 60, 0, 0, 0, 0, 0, 0, 0, 128, 0, 127, 0, 0, 5, 0, 130, 127, 52, 50, 105, 55, 60, 157, 197, 60, 0, 0, 0, 0, 80, 58, 94, 186, 0, 127, 0, 0, 5, 0, 130, 127, 77, 50, 176, 55, 19, 233, 142, 60, 0, 0, 0, 0, 0, 0, 0, 128, 0, 127, 0, 0, 5, 0, 130, 127, 52, 50, 105, 55, 160, 255, 135, 60, 0, 0, 128, 174, 131, 195, 162, 187, 0, 127, 0, 0, 5, 0, 130, 127, 158, 50, 93, 55, 60, 157, 197, 60, 0, 0, 0, 0, 0, 0, 0, 128, 0, 127, 0, 0, 5, 0, 130, 127, 58, 50, 177, 55, 19, 233, 142, 60, 0, 0, 0, 0, 0, 0, 0, 128, 0, 127, 0, 0, 5, 0, 130, 127, 52, 50, 105, 55, 60, 157, 197, 60, 0, 0, 0, 0, 80, 58, 94, 186, 0, 127, 0, 0, 5, 0, 130, 127, 77, 50, 176, 55, 196, 37, 17, 188, 0, 0, 0, 0, 130, 144, 199, 59, 0, 127, 0, 0, 78, 0, 156, 127, 152, 49, 89, 54, 71, 213, 130, 188, 0, 0, 0, 0, 0, 0, 0, 128, 0, 127, 0, 0, 248, 0, 130, 127, 13, 50, 233, 53, 12, 165, 159, 187, 0, 0, 0, 0, 0, 0, 0, 128, 0, 127, 0, 0, 253, 0, 130, 127, 31, 50, 89, 54, 196, 37, 17, 188, 0, 0, 0, 0, 130, 144, 199, 59, 0, 127, 0, 0, 78, 0, 156, 127, 152, 49, 89, 54, 63, 36, 172, 188, 0, 0, 0, 0, 168, 195, 136, 59, 0, 127, 0, 0, 98, 0, 176, 127, 189, 49, 233, 53, 71, 213, 130, 188, 0, 0, 0, 0, 0, 0, 0, 128, 0, 127, 0, 0, 248, 0, 130, 127, 13, 50, 233, 53, 160, 255, 135, 60, 0, 0, 128, 174, 131, 195, 162, 59, 0, 127, 0, 0, 17, 0, 131, 127, 200, 49, 98, 55, 12, 165, 159, 187, 0, 0, 0, 0, 0, 0, 0, 128, 0, 127, 0, 0, 63, 0, 147, 127, 31, 50, 89, 54, 19, 233, 142, 60, 0, 0, 0, 0, 0, 0, 0, 128, 0, 127, 0, 0, 7, 0, 130, 127, 52, 50, 105, 55, 160, 255, 135, 60, 0, 0, 128, 174, 131, 195, 162, 59, 0, 127, 0, 0, 17, 0, 131, 127, 200, 49, 98, 55, 196, 37, 17, 188, 0, 0, 0, 0, 130, 144, 199, 59, 0, 127, 0, 0, 69, 0, 150, 127, 152, 49, 89, 54, 12, 165, 159, 187, 0, 0, 0, 0, 0, 0, 0, 128, 0, 127, 0, 0, 63, 0, 147, 127, 31, 50, 89, 54, 71, 213, 130, 188, 0, 0, 0, 0, 0, 0, 0, 128, 0, 127, 0, 0, 248, 0, 130, 127, 13, 50, 233, 53, 224, 206, 250, 188, 0, 0, 0, 0, 0, 0, 0, 128, 0, 127, 0, 0, 26, 0, 132, 127, 6, 50, 99, 53, 63, 36, 172, 188, 0, 0, 0, 0, 168, 195, 136, 187, 0, 127, 0, 0, 160, 0, 174, 127, 113, 50, 233, 53, 113, 234, 189, 188, 0, 0, 0, 0, 168, 195, 136, 59, 0, 127, 0, 0, 107, 0, 189, 127, 202, 49, 228, 53, 224, 206, 250, 188, 0, 0, 0, 0, 0, 0, 0, 128, 0, 127, 0, 0, 26, 0, 132, 127, 6, 50, 99, 53, 71, 213, 130, 188, 0, 0, 0, 0, 0, 0, 0, 128, 0, 127, 0, 0, 248, 0, 130, 127, 13, 50, 233, 53, 61, 205, 235, 60, 0, 0, 0, 0, 64, 214, 118, 58, 0, 127, 0, 0, 5, 0, 130, 127, 42, 50, 227, 55, 60, 157, 197, 60, 0, 0, 0, 0, 0, 0, 0, 128, 0, 127, 0, 0, 5, 0, 130, 127, 58, 50, 177, 55, 61, 205, 235, 60, 0, 0, 0, 0, 0, 0, 0, 128, 0, 127, 0, 0, 5, 0, 130, 127, 63, 50, 227, 55, 61, 205, 235, 60, 0, 0, 0, 0, 64, 214, 118, 58, 0, 127, 0, 0, 5, 0, 130, 127, 42, 50, 227, 55, 60, 157, 197, 60, 0, 0, 0, 0, 80, 58, 94, 58, 0, 127, 0, 0, 5, 0, 130, 127, 40, 50, 177, 55, 60, 157, 197, 60, 0, 0, 0, 0, 0, 0, 0, 128, 0, 127, 0, 0, 5, 0, 130, 127, 58, 50, 177, 55, 61, 205, 235, 60, 0, 0, 0, 0, 0, 0, 0, 128, 0, 127, 0, 0, 5, 0, 130, 127, 63, 50, 227, 55, 60, 157, 197, 60, 0, 0, 0, 0, 80, 58, 94, 186, 0, 127, 0, 0, 5, 0, 130, 127, 77, 50, 176, 55, 61, 205, 235, 60, 0, 0, 0, 0, 64, 214, 118, 186, 0, 127, 0, 0, 5, 0, 130, 127, 83, 50, 227, 55, 61, 205, 235, 60, 0, 0, 0, 0, 0, 0, 0, 128, 0, 127, 0, 0, 5, 0, 130, 127, 63, 50, 227, 55, 60, 157, 197, 60, 0, 0, 0, 0, 0, 0, 0, 128, 0, 127, 0, 0, 5, 0, 130, 127, 58, 50, 177, 55, 60, 157, 197, 60, 0, 0, 0, 0, 80, 58, 94, 186, 0, 127, 0, 0, 5, 0, 130, 127, 77, 50, 176, 55 ),
"array_index_data": PoolByteArray(  ),
"blend_shape_data": [  ],
"format": 97303,
"index_count": 0,
"material": ExtResource( 1 ),
"primitive": 4,
"skeleton_aabb": [  ],
"vertex_count": 54
}
