[gd_resource type="SpatialMaterial" load_steps=2 format=2]

[ext_resource path="res://models/palatte.png" type="Texture" id=1]

[resource]
flags_transparent = true
flags_do_not_receive_shadows = true
params_cull_mode = 2
albedo_color = Color( 1, 1, 1, 0.215686 )
albedo_texture = ExtResource( 1 )
emission_enabled = true
emission = Color( 0, 0.00392157, 1, 1 )
emission_energy = 2.0
emission_operator = 0
emission_on_uv2 = false
emission_texture = ExtResource( 1 )
